{
    "name": "Lucas Gabriel",
    "lastName": "Lopes",
    "email": "lucasgabriel@gmail.com",
    "password": "123456",
    "city": "montenegro",
    "state": "RS",
    "birthDate": "25/12/1995",
    "sex":"male"
}
