----- 0-01:40:33 28/06/2015 -----


----- 1-01:40:33 28/06/2015 -----
Conectando ao servidor...
URL:  http://youcurte.com.br/api/post/timeline/6xIyOlc9eWMTmz34P87oEQkknf5jcrj8ORvt4wr9l5RysIq0Fm
Método: GET

Content-type: text/plain; charset=utf-8
Dados de entrada:

Dados de saída:
{"result":"ok","data":[{"tri":"0","bah":"0","my_bah":0,"my_tri":0,"userId":"1","time":"01:40:53 28\/06\/2015","postId":"6","imageId":"6","image":"http:\/\/youcurte.com.br\/img\/user\/8vTxsbM0tp.png","imageName":"Sem nome"},{"text":"Postando #imagem...","tri":"0","bah":"0","my_bah":0,"my_tri":0,"userId":"1","time":"01:40:53 28\/06\/2015","postId":"8","imageId":"5","image":"http:\/\/youcurte.com.br\/img\/user\/zpvGMigP95.png","imageName":"Sem nome"},{"text":"Testando #checking","local":"Rua Boa Vista, 737 - Santo Antonio, Montenegro - RS, 95780-000, Brasil","tri":"0","bah":"0","my_bah":0,"my_tri":0,"location":{"lat":"-29.676","lng":"-51.4699"},"userId":"1","time":"01:40:24 28\/06\/2015","postId":"4"},{"text":"Testando...","local":"Montenegro","tri":"0","bah":"1","my_bah":"1","my_tri":"0","userId":"1","time":"01:40:23 28\/06\/2015","postId":"1"},{"text":"Testando...","local":"Montenegro","tri":"0","bah":"0","my_bah":0,"my_tri":0,"userId":"1","time":"01:40:23 28\/06\/2015","postId":"2"},{"text":"Testando #checking","local":"Rua Boa Vista, 737 - Santo Antonio, Montenegro - RS, 95780-000, Brasil","tri":"0","bah":"0","my_bah":0,"my_tri":0,"location":{"lat":"-29.676","lng":"-51.4699"},"userId":"1","time":"01:40:23 28\/06\/2015","postId":"3"}]}





----- 2-01:40:34 28/06/2015 -----
Conectando ao servidor...
URL:  http://youcurte.com.br/api/xml/post/timeline/QxvsJCBtznGPoXFrEvKfIcA8upBkAp2ZLixdJQDZmjbOtiP
Método: GET

Content-type: text/plain; charset=utf-8
Dados de entrada:

Dados de saída:
<?xml version="1.0"?>
<YouCurte><result>ok</result><data><item><tri>0</tri><bah>0</bah><my_bah>0</my_bah><my_tri>0</my_tri><userId>1</userId><time>01:40:53 28/06/2015</time><postId>6</postId><imageId>6</imageId><image>http://youcurte.com.br/img/user/8vTxsbM0tp.png</image><imageName>Sem nome</imageName></item><item><text>Postando #imagem...</text><tri>0</tri><bah>0</bah><my_bah>0</my_bah><my_tri>0</my_tri><userId>1</userId><time>01:40:53 28/06/2015</time><postId>8</postId><imageId>5</imageId><image>http://youcurte.com.br/img/user/zpvGMigP95.png</image><imageName>Sem nome</imageName></item><item><text>Testando #checking</text><local>Rua Boa Vista, 737 - Santo Antonio, Montenegro - RS, 95780-000, Brasil</local><tri>0</tri><bah>0</bah><my_bah>0</my_bah><my_tri>0</my_tri><location><lat>-29.676</lat><lng>-51.4699</lng></location><userId>1</userId><time>01:40:24 28/06/2015</time><postId>4</postId></item><item><text>Testando...</text><local>Montenegro</local><tri>0</tri><bah>1</bah><my_bah>1</my_bah><my_tri>0</my_tri><userId>1</userId><time>01:40:23 28/06/2015</time><postId>1</postId></item><item><text>Testando...</text><local>Montenegro</local><tri>0</tri><bah>0</bah><my_bah>0</my_bah><my_tri>0</my_tri><userId>1</userId><time>01:40:23 28/06/2015</time><postId>2</postId></item><item><text>Testando #checking</text><local>Rua Boa Vista, 737 - Santo Antonio, Montenegro - RS, 95780-000, Brasil</local><tri>0</tri><bah>0</bah><my_bah>0</my_bah><my_tri>0</my_tri><location><lat>-29.676</lat><lng>-51.4699</lng></location><userId>1</userId><time>01:40:23 28/06/2015</time><postId>3</postId></item></data></YouCurte>





