----- 0-01:39:46 28/06/2015 -----


----- 1-01:39:46 28/06/2015 -----
Conectando ao servidor...
URL:  http://youcurte.com.br/api/album/image
Método: PUT

Content-type: application/json
Dados de entrada:
{"images":["1","3"],"auth":"6xIyOlc9eWMTmz34P87oEQkknf5jcrj8ORvt4wr9l5RysIq0Fm","album":"Meu álbum - json"}
Dados de saída:
{"result":"ok","data":[]}





----- 2-01:39:46 28/06/2015 -----
Conectando ao servidor...
URL:  http://youcurte.com.br/api/album/image/1
Método: GET

Content-type: text/plain; charset=utf-8
Dados de entrada:

Dados de saída:
{"result":"ok","data":{"prevImage":"http:\/\/youcurte.com.br\/img\/user\/fubNT6t6Sy.png","nextImage":"http:\/\/youcurte.com.br\/img\/user\/fubNT6t6Sy.png","imageTime":"2015-06-28 01:39:25","albumId":"3","userId":"1","album":"Meu \u00e1lbum - json","imageId":"1","image":"http:\/\/youcurte.com.br\/img\/user\/rdtXw9Inkl.png","imageName":"Teste.png"}}



Meu álbum - json
{"imageTime":"2015-06-28 01:39:25","image":"http://youcurte.com.br/img/user/rdtXw9Inkl.png","imageId":"1","imageName":"Teste.png","album":"Meu álbum - json","prevImage":"http://youcurte.com.br/img/user/fubNT6t6Sy.png","albumId":"3","nextImage":"http://youcurte.com.br/img/user/fubNT6t6Sy.png","userId":"1"}


----- 3-01:39:47 28/06/2015 -----
Conectando ao servidor...
URL:  http://youcurte.com.br/api/album/image/3
Método: GET

Content-type: text/plain; charset=utf-8
Dados de entrada:

Dados de saída:
{"result":"ok","data":{"prevImage":"http:\/\/youcurte.com.br\/img\/user\/rdtXw9Inkl.png","nextImage":"http:\/\/youcurte.com.br\/img\/user\/rdtXw9Inkl.png","imageTime":"2015-06-28 01:39:52","albumId":"3","userId":"1","album":"Meu \u00e1lbum - json","imageId":"3","image":"http:\/\/youcurte.com.br\/img\/user\/fubNT6t6Sy.png","imageName":"Sem nome"}}



Meu álbum - json
{"imageTime":"2015-06-28 01:39:52","image":"http://youcurte.com.br/img/user/fubNT6t6Sy.png","imageId":"3","imageName":"Sem nome","album":"Meu álbum - json","prevImage":"http://youcurte.com.br/img/user/rdtXw9Inkl.png","albumId":"3","nextImage":"http://youcurte.com.br/img/user/rdtXw9Inkl.png","userId":"1"}


----- 4-01:39:47 28/06/2015 -----
Conectando ao servidor...
URL:  http://youcurte.com.br/api/xml/album/image
Método: PUT

Content-type: application/xml
Dados de entrada:
<YouCurte><images>1</images><images>3</images><auth>QxvsJCBtznGPoXFrEvKfIcA8upBkAp2ZLixdJQDZmjbOtiP</auth><album>Meu álbum - xml</album></YouCurte>
Dados de saída:
<?xml version="1.0"?>
<YouCurte><result>ok</result><data/></YouCurte>





----- 5-01:39:47 28/06/2015 -----
Conectando ao servidor...
URL:  http://youcurte.com.br/api/album/image/1
Método: GET

Content-type: text/plain; charset=utf-8
Dados de entrada:

Dados de saída:
{"result":"ok","data":{"prevImage":"http:\/\/youcurte.com.br\/img\/user\/fubNT6t6Sy.png","nextImage":"http:\/\/youcurte.com.br\/img\/user\/fubNT6t6Sy.png","imageTime":"2015-06-28 01:39:25","albumId":"4","userId":"1","album":"Meu \u00e1lbum - xml","imageId":"1","image":"http:\/\/youcurte.com.br\/img\/user\/rdtXw9Inkl.png","imageName":"Teste.png"}}



Meu álbum - xml
{"imageTime":"2015-06-28 01:39:25","image":"http://youcurte.com.br/img/user/rdtXw9Inkl.png","imageId":"1","imageName":"Teste.png","album":"Meu álbum - xml","prevImage":"http://youcurte.com.br/img/user/fubNT6t6Sy.png","albumId":"4","nextImage":"http://youcurte.com.br/img/user/fubNT6t6Sy.png","userId":"1"}


----- 6-01:39:47 28/06/2015 -----
Conectando ao servidor...
URL:  http://youcurte.com.br/api/album/image/3
Método: GET

Content-type: text/plain; charset=utf-8
Dados de entrada:

Dados de saída:
{"result":"ok","data":{"prevImage":"http:\/\/youcurte.com.br\/img\/user\/rdtXw9Inkl.png","nextImage":"http:\/\/youcurte.com.br\/img\/user\/rdtXw9Inkl.png","imageTime":"2015-06-28 01:39:52","albumId":"4","userId":"1","album":"Meu \u00e1lbum - xml","imageId":"3","image":"http:\/\/youcurte.com.br\/img\/user\/fubNT6t6Sy.png","imageName":"Sem nome"}}



Meu álbum - xml
{"imageTime":"2015-06-28 01:39:52","image":"http://youcurte.com.br/img/user/fubNT6t6Sy.png","imageId":"3","imageName":"Sem nome","album":"Meu álbum - xml","prevImage":"http://youcurte.com.br/img/user/rdtXw9Inkl.png","albumId":"4","nextImage":"http://youcurte.com.br/img/user/rdtXw9Inkl.png","userId":"1"}


